Variable,Notes,,,,,,
Ticker,,TITRE1,TITRE2,TITRE3,TITRE4,TITRE5,TITRE6
Description,,,,,,,
Type,,SPOT,SPOT,SPOT,SPOT,SPOT,SPOT
UnitMultiplier,,1,1,1,1,1,1
DisplayUnit,,,,,,,
Currency,,CAD,CAD,CAD,CAD,CAD,CAD
IsTradeable,,1,1,1,1,1,1
IsFollowPath,,1,1,1,1,1,1
StartPeriod,,1,1,1,1,1,1
StopPeriod,,1,1,1,1,1,1
MinPrice,,0,0,0,0,0,0
MaxPrice,,10000,10000,10000,10000,10000,10000
QuotedDecimals,,2,2,2,2,2,2
IsShortAllowed,,1,1,1,1,1,1
TradingFee,,10,10,10,10,10,10
TradingFeeType,,PER_TRADE,PER_TRADE,PER_TRADE,PER_TRADE,PER_TRADE,PER_TRADE
MaxTradeSize,,1000,1000,1000,1000,1000,1000
RiskType,,limit-SPOT,limit-SPOT,limit-SPOT,limit-SPOT,limit-SPOT,limit-CASH
RiskUnit,,1,1,1,1,1,1
CT_IsEnabled,,0,0,0,0,0,0
CT_Frequency,,100,100,100,100,100,100
CT_Spread,,0.5,0.5,0.5,1,1,1
CT_Size,,10000,10000,10000,10000,10000,10000
CT_IsInitializeBook,,1,1,1,1,1,1
CT_InitialBookSize,,100,100,100,100,100,100
CT_Aggressiveness,0 to 100,90,90,90,90,90,90
PATH_PathSheet,,$TITRE1,$TITRE2,$TITRE3,$TITRE4,$TITRE5,$TITRE6
PATH_PathStartTick,,1,1,1,1,1,1